<?xml version="1.0" encoding="UTF-8" standalone="no"?>
<!-- Created with Inkscape (http://www.inkscape.org/) -->

<svg
   xmlns:dc="http://purl.org/dc/elements/1.1/"
   xmlns:cc="http://creativecommons.org/ns#"
   xmlns:rdf="http://www.w3.org/1999/02/22-rdf-syntax-ns#"
   xmlns:svg="http://www.w3.org/2000/svg"
   xmlns="http://www.w3.org/2000/svg"
   xmlns:sodipodi="http://sodipodi.sourceforge.net/DTD/sodipodi-0.dtd"
   xmlns:inkscape="http://www.inkscape.org/namespaces/inkscape"
   width="96.495407mm"
   height="250.17892mm"
   viewBox="0 0 341.91286 886.46075"
   id="svg20852"
   version="1.1"
   inkscape:version="0.91 r13725"
   sodipodi:docname="descriptors.svg">
  <defs
     id="defs20854" />
  <sodipodi:namedview
     id="base"
     pagecolor="#ffffff"
     bordercolor="#666666"
     borderopacity="1.0"
     inkscape:pageopacity="0.0"
     inkscape:pageshadow="2"
     inkscape:zoom="0.24748737"
     inkscape:cx="-382.24712"
     inkscape:cy="231.20804"
     inkscape:document-units="px"
     inkscape:current-layer="layer1"
     showgrid="false"
     inkscape:window-width="1331"
     inkscape:window-height="750"
     inkscape:window-x="29"
     inkscape:window-y="18"
     inkscape:window-maximized="1"
     fit-margin-top="0"
     fit-margin-left="0"
     fit-margin-right="0"
     fit-margin-bottom="0" />
  <metadata
     id="metadata20857">
    <rdf:RDF>
      <cc:Work
         rdf:about="">
        <dc:format>image/svg+xml</dc:format>
        <dc:type
           rdf:resource="http://purl.org/dc/dcmitype/StillImage" />
        <dc:title></dc:title>
      </cc:Work>
    </rdf:RDF>
  </metadata>
  <g
     inkscape:label="Layer 1"
     inkscape:groupmode="layer"
     id="layer1"
     transform="translate(-152.10813,-111.29557)">
    <path
       style="fill:#000000;fill-opacity:1;stroke:none;stroke-width:4;stroke-miterlimit:10.43299961;stroke-dasharray:none"
       d="m 255.68176,111.29583 -0.0301,5.51863 c -0.24269,42.35038 0.23967,78.40738 1.07777,80.61198 1.29029,3.3942 3.49098,5.8044 7.11163,7.7914 2.44116,1.3396 7.50434,1.6603 33.11567,2.0947 16.62899,0.2821 44.48927,0.4979 61.91041,0.4798 l 31.6731,-0.034 0,-4.7988 0,-4.7987 -5.03832,-0.29 -5.03903,-0.2901 0,-36.952 c 0,-45.8734 0.41374,-44.53437 -13.81031,-44.53437 -7.96481,0 -11.33747,1.08653 -12.99106,4.18494 -0.75668,1.4188 -1.15914,13.77466 -1.30383,39.96823 l -0.21029,37.9133 -6.4786,0.2841 -6.48003,0.2826 0,-32.7509 0,-32.75238 -2.8052,-2.80572 c -2.6612,-2.66092 -3.22569,-2.80564 -10.96365,-2.80564 -7.377,0 -8.44187,0.23793 -11.1122,2.48483 l -2.95286,2.4847 0,33.02921 0,33.0291 -5.75882,0 -5.76032,0 0,-23.021 0,-23.0209 -2.71696,-3.0426 c -2.29643,-2.5701 -3.55662,-3.1121 -8.11555,-3.4901 -7.43049,-0.6163 -11.99774,0.4233 -14.70641,3.3459 -2.28816,2.4683 -2.29493,2.5545 -2.29493,25.4393 l 0,22.962 -2.13591,-0.3061 c -4.36304,-0.6266 -4.55449,-2.5361 -4.56954,-45.6591 l -0.0151,-40.55255 -4.79864,0 -4.79864,0 z m 65.18894,103.78011 c -0.33388,-0.014 -0.71372,0.047 -1.06039,0.1855 -0.76576,0.3064 -0.53815,0.534 0.58029,0.5799 1.01144,0.042 1.57898,-0.1844 1.26015,-0.5033 -0.15977,-0.1595 -0.44693,-0.2484 -0.78005,-0.2621 z"
       id="rect20171"
       inkscape:connector-curvature="0" />
    <path
       inkscape:connector-curvature="0"
       style="fill:#000000;fill-opacity:1;stroke:none;stroke-width:4;stroke-miterlimit:10.43299961;stroke-dasharray:none"
       d="m 367.45511,268.76405 -47.90996,0.2712 -47.90927,0.2712 -3.61094,8.8814 c -4.45416,10.9541 -10.82005,27.7705 -10.82005,28.5807 0,0.3298 4.16701,0.7347 9.26078,0.8998 l 9.26081,0.3007 -5.55167,15.1511 -5.55366,15.1518 -0.0501,37.8783 -0.0508,37.8775 51.76074,0 51.76003,0 2.03626,-4.9631 c 3.86574,-9.4273 4.29655,-9.8889 11.47413,-12.2811 l 6.79157,-2.2634 0.29061,-31.2597 0.29064,-31.2589 -10.73389,-31.6191 -10.73389,-31.6184 0,0 z m -10.63032,14.789 c 1.13065,-0.065 1.42868,0.3961 1.15778,1.6268 -0.22887,1.0398 -2.30724,13.545 -4.61972,27.7897 l -4.20416,25.8984 0,31.3104 0,31.3104 -35.5286,0 -35.52731,0 0,-31.2951 0,-31.2957 3.54612,-9.7184 c 1.95017,-5.3445 4.56762,-12.4124 5.81621,-15.7076 l 2.2701,-5.992 27.83381,-0.2785 27.83312,-0.278 4.38853,-11.4934 c 3.39921,-8.9043 4.86346,-11.5671 6.49833,-11.8175 0.19631,-0.03 0.37427,-0.05 0.53579,-0.06 z m -30.05845,61.6027 c -2.44368,-0.056 -4.99378,0.8422 -6.2919,3.0658 -0.86036,1.3163 -1.28078,2.9465 -1.03084,4.5095 -5.62224,0.029 -11.24451,0.058 -16.86674,0.088 -1.19373,1.8043 0.49122,3.559 0.7115,5.3004 -0.0713,2.7037 -4.53496,2.4847 -4.60436,-0.082 -0.0757,-1.5019 2.07632,-3.0188 0.68212,-4.5282 -1.76632,-1.1954 -4.28006,-0.6757 -6.3674,-0.8017 -1.86548,0.3604 -4.04927,-0.4976 -5.73802,0.5044 -1.58134,1.8431 -0.39784,4.6218 -0.81907,6.7822 -0.0682,6.9318 -0.19172,13.8724 0.23984,20.7957 1.90954,1.8069 4.77734,0.6357 7.09556,0.9487 1.90919,-0.038 4.53978,0.5729 5.84563,-1.1418 0.90975,-1.9518 -2.23606,-3.7224 -0.34007,-5.5109 1.57015,-1.8462 4.99218,0.1368 3.78665,2.3523 -0.8355,1.2367 -1.58257,3.862 0.50839,4.2817 11.76973,-0.1749 23.62076,0.3251 35.40769,-0.1463 2.18421,-0.6627 1.35165,-3.417 1.5379,-5.0714 -0.16637,-2.4292 0.63208,-5.3167 -0.76226,-7.4656 -1.86836,-1.6861 -3.89163,1.6968 -5.75742,0.1035 -1.97641,-1.3755 -0.37427,-5.0138 1.94741,-4.0391 1.23008,0.8673 3.63939,1.5836 4.22088,-0.3815 0.78022,-3.1219 0.0604,-6.3858 0.35673,-9.5574 0.0414,-1.5502 -1.34858,-2.632 -2.852,-2.4151 -1.69079,-0.2256 -3.89963,0.2763 -5.26705,-0.1817 0.50624,-3.4189 -2.11907,-6.4562 -5.15615,-7.3855 -0.16159,-0.012 -0.32413,-0.02 -0.48702,-0.024 z m -0.98476,4.2577 c 0.065,0 0.13145,0 0.19911,0 2.37243,0.097 2.70727,3.2517 1.27133,4.6477 -0.61292,1.3522 0.46728,3.4043 2.09907,2.7244 l 6.86844,0.071 c -0.0127,1.3094 0.0907,2.6544 -0.0106,3.9196 -4.13739,-0.6102 -8.00388,3.3782 -7.28663,7.4851 0.43225,3.4189 4.00385,6.0495 7.37549,5.5022 -0.56633,1.2467 0.65175,2.7359 -0.20776,3.7886 -2.27126,0.5002 -4.70092,-0.1787 -7.03546,0.09 l -13.53642,0 c 0.12923,-1.2337 -0.47227,-2.967 0.12091,-3.8802 4.60269,0.7982 8.91456,-4.4192 7.02544,-8.7724 -0.9952,-2.8309 -4.1417,-4.6541 -7.09292,-4.2128 0.11537,-1.2612 -0.55337,-2.7382 0.12293,-3.8622 2.80469,-0.36 6.00588,0.5572 8.5593,-0.7582 1.32131,-1.6879 -0.97345,-3.3889 -0.63666,-5.076 0.50767,-0.7603 1.18958,-1.6164 2.16453,-1.6675 z m -15.60276,7.3942 c 0.51834,0.01 0.95675,0.1003 1.18983,0.4008 0.18754,2.7389 -0.72283,5.9014 0.71485,8.3883 1.40231,1.3956 3.01673,-0.4061 4.41927,-0.6714 2.29524,0.015 3.26547,3.5972 0.95402,4.4807 -1.95982,0.7001 -3.92795,-2.2084 -5.67727,-0.328 -1.22502,1.3298 -0.0174,3.2979 -0.45965,4.8535 -0.37054,1.2174 0.92908,4.0479 -1.04216,3.6931 -0.90487,-0.032 -2.06846,0.2216 -2.8039,-0.1029 0.65137,-4.0627 -3.27354,-8.1369 -7.38819,-7.2893 -3.45889,0.308 -6.08756,3.9323 -5.561,7.3167 -1.28119,-0.079 -2.69913,0.5408 -3.88817,-0.035 0.027,-6.8829 0.0539,-13.7658 0.0808,-20.6487 1.304,-0.024 2.60236,0.071 3.90219,-0.045 -1.08738,4.4726 3.91482,8.8188 8.23797,7.3141 3.07474,-0.8113 5.0217,-4.1812 4.6371,-7.2606 0.73356,0.1364 1.8204,-0.08 2.68428,-0.066 z"
       id="rect20191" />
    <path
       style="fill:#000000;fill-opacity:1;stroke:none;stroke-width:4;stroke-miterlimit:10.43299961;stroke-dasharray:none"
       d="m 328.58036,466.94565 c -11.24065,0.1664 -22.46952,-0.2348 -33.68861,0.3821 -4.06231,0.4881 -8.52578,1.1745 -11.71144,3.9536 -4.40289,4.3941 -3.87459,11.168 -3.97304,16.8753 -0.062,9.1952 0.0106,18.4144 0.10826,27.5941 0.92392,3.1326 4.14526,4.678 6.01909,7.1606 1.57747,1.7865 3.94071,2.9036 6.3322,2.336 8.37493,0 16.74982,0 25.12476,0 0,5.6285 0,11.257 0,16.8855 -17.17104,0.2217 -34.38677,-0.6106 -51.52555,0.6333 -8.95563,1.879 -15.21785,10.5443 -15.99314,19.3947 -0.63027,4.4785 -0.50884,9.014 -0.51821,13.5238 -5.87501,-0.01 -12.74485,-0.8342 -17.52547,3.3571 -4.68669,4.736 -4.31929,11.9769 -4.66986,18.1203 -0.18737,9.5083 -0.74266,19.2566 1.71029,28.537 1.49833,4.262 5.48422,7.5229 10.04244,7.809 3.43728,0.6395 7.17659,0.2357 10.47533,0.4731 0.0649,8.271 -0.52043,17.4872 4.66915,24.5168 3.49457,5.2134 9.57532,8.7214 15.92507,8.4282 13.1707,0.7704 26.37753,0.3875 39.56037,0.3137 5.19012,-0.1064 10.49258,-1.712 14.19556,-5.4978 4.59796,-4.0977 7.16927,-10.201 6.96195,-16.3507 0.17328,-3.8744 0.13778,-7.7291 0.45229,-11.592 6.14948,0.2886 13.40039,0.5982 18.08667,-4.142 4.35131,-4.5932 3.60694,-11.4651 4.04391,-17.2744 0.24016,-9.4886 0.55047,-19.1487 -1.46651,-28.4717 -2.18537,-5.731 -8.6795,-8.6223 -14.53385,-8.2527 -2.09725,-0.078 -4.19598,-0.022 -6.29389,-0.02 0,-6.6424 0,-13.2848 0,-19.9272 16.0085,0.02 32.01717,-0.05 48.02554,0.04 2.43975,1.9692 5.44149,4.2688 4.99758,7.7982 0.27549,4.0461 0.34068,8.1022 0.49864,12.1537 -5.451,0.128 -11.88127,-1.2377 -16.49531,2.5573 -2.13289,1.7623 -3.74191,4.0734 -5.93849,5.7655 0,13.8172 0,27.6344 0,41.4517 3.36302,2.6161 5.59456,6.7803 9.64226,8.4317 13.40258,0 26.8052,0 40.20778,0 2.61601,-3.3632 6.78021,-5.5944 8.43171,-9.6422 0,-13.4051 0,-26.8101 0,-40.2152 -3.58494,-3.0608 -6.55371,-7.9882 -11.75003,-8.2774 -3.54051,-0.3551 -7.13978,0.071 -10.63965,-0.2344 -0.0411,-8.3188 0.96393,-17.5914 -3.96702,-24.8623 -4.351,-6.1367 -12.22137,-8.7677 -19.52031,-8.3602 -14.20763,-0.3806 -28.4546,-0.173 -42.64492,-0.1142 -1.52685,0.4625 -0.73305,-1.8601 -0.81839,-2.6583 -0.0508,-4.7781 -0.0226,-9.5654 -0.0294,-14.3474 9.86867,-0.2914 20.02552,1.1106 29.66098,-1.5981 4.51607,-1.8477 7.07886,-6.6828 7.24024,-11.4046 1.23477,-9.4109 0.48729,-18.9341 0.37831,-28.3858 -0.27108,-5.2594 -1.34406,-11.5794 -6.34721,-14.4254 -5.71199,-3.2072 -12.53535,-1.8771 -18.76585,-2.3518 -4.65762,-0.078 -9.31609,-0.09 -13.97425,-0.086 z m -8.25535,13.505 c 10.77681,0.187 21.59242,-0.2347 32.28448,1.0502 0.85321,9.758 1.17823,19.604 0.55717,29.3857 -19.91145,0.8675 -39.88601,0.9962 -59.80296,0.2946 -0.76408,-9.9174 -1.07787,-19.9784 0.16569,-29.8507 8.86034,-0.8983 17.85093,-0.7674 26.79562,-0.8798 z m -26.12421,75.2601 c 7.53027,0 15.06051,0 22.59078,0 0,6.655 0,13.3101 0,19.9652 -6.28856,-0.073 -13.61767,-0.733 -18.62647,3.8762 -3.91379,3.576 -3.48112,9.3366 -3.54215,14.1441 -0.23594,10.531 -0.35183,21.1161 0.67614,31.6033 1.6178,5.6951 7.9632,8.3702 13.4401,8.5344 2.66752,0.1805 5.34186,0.033 8.01229,0.05 -0.0786,6.0733 0.89128,13.1368 -3.42117,18.1007 -3.765,2.3983 -8.36922,1.0999 -12.56021,1.6537 -11.08798,0.1423 -22.26367,0.6674 -33.24668,-0.9529 -2.54558,-0.6405 -4.00491,-3.1842 -3.89419,-5.7013 -0.53555,-4.2385 -0.23447,-8.5792 -0.30128,-12.8664 6.10296,-0.4239 13.31782,0.3058 18.05993,-4.3845 4.54816,-4.7528 3.82793,-11.8836 4.13684,-17.9289 0.0939,-9.3701 0.72214,-18.9584 -1.53537,-28.1319 -2.14456,-5.4576 -8.26606,-8.2528 -13.88518,-7.9847 -2.27386,-0.063 -4.56571,0.063 -6.82031,-0.3047 -0.0503,-5.6522 -0.78962,-11.7591 1.67284,-16.9182 3.02692,-3.0158 7.7131,-2.0717 11.56963,-2.5721 5.87063,-0.2374 11.78549,-0.127 17.67446,-0.1816 z m 97.37184,33.4876 c 4.66179,0.1466 9.28209,-0.2197 13.86045,0.791 1.30014,9.3667 0.80119,18.9455 0.26122,28.3976 0.14982,1.9761 -2.2297,1.3039 -3.49734,1.6542 -7.38206,0.5458 -14.82483,0.1093 -22.23538,0.1149 -1.39992,-0.077 -2.80438,-0.2153 -4.1654,-0.5645 -1.14338,-9.2636 -0.97253,-18.7557 -0.22172,-28.0865 -0.24884,-1.5356 0.72628,-1.8969 2.0951,-1.8486 4.58965,-0.5521 9.25797,-0.4154 13.90307,-0.4581 z m -133.99344,0.063 c 4.46316,0.156 9.02134,-0.1163 13.41151,0.6353 1.25379,5.1499 0.53045,10.5505 0.9442,15.8252 0.0628,4.8645 0.35389,9.941 -1.0384,14.5981 -2.27057,0.096 -4.54905,-0.2836 -6.83166,-0.067 -7.84192,-0.062 -15.81288,0.4325 -23.52475,-0.9209 -0.7429,-2.8532 -0.14647,-5.8678 -0.46687,-8.7803 -0.0657,-6.823 -0.40348,-13.7019 0.48223,-20.4424 2.06254,-0.8282 4.39861,-0.224 6.55805,-0.6729 3.46492,-0.1528 6.97584,-0.1609 10.46569,-0.1755 z m 68.71502,0.1603 c 3.99154,0.2111 8.06127,-0.4037 11.99586,0.4737 1.448,9.0434 0.92757,18.2922 0.53178,27.3875 -0.17745,1.1296 0.0405,2.7929 -1.65347,2.3777 -9.41262,0.9802 -18.96428,0.8201 -28.41236,0.187 -0.72584,-0.5313 -0.0902,-1.9176 -0.42421,-2.7257 -0.39412,-8.5278 0.22182,-17.1047 0.1507,-25.655 -0.84575,-2.6984 2.13458,-1.5588 3.71315,-1.8363 4.69924,-0.085 9.39831,-0.1957 14.09855,-0.2089 z"
       id="rect20801"
       inkscape:connector-curvature="0" />
    <path
       style="fill:#000000;fill-opacity:1;stroke:none;stroke-width:4;stroke-miterlimit:10.43299961;stroke-dasharray:none"
       d="m 315.9289,720.31882 c -7.6936,0.1354 -15.20488,4.3877 -19.12144,12.1175 -1.6201,3.1975 -1.80173,4.1369 -1.80173,9.3369 0,5.1565 0.19316,6.1732 1.77765,9.4004 2.25874,4.6002 5.82709,8.1698 10.42731,10.4285 3.18433,1.5635 4.27585,1.7764 9.09601,1.7764 4.39242,0 6.06444,-0.2706 8.44054,-1.3668 l 2.96305,-1.3668 4.64442,4.4516 c 2.55444,2.4485 5.92245,5.6204 7.4845,7.0484 l 2.84012,2.5954 -1.12593,1.9272 c -5.78659,9.8959 -5.98666,22.5937 -0.52614,33.4108 2.09948,4.1591 2.43014,3.3822 -4.71286,11.0702 l -0.88243,0.9496 c -4.60771,-3.4214 -9.97706,-5.0852 -16.21414,-5.0221 l 0,0 c -0.54591,0.01 -1.09778,0.025 -1.65714,0.057 -4.60148,0.2623 -6.04248,0.6268 -9.78449,2.4763 -5.84173,2.8871 -10.18014,7.2522 -13.0557,13.1342 -2.21157,4.5236 -2.26209,4.7791 -2.25563,11.6243 0.006,6.9005 0.0385,7.0647 2.35958,11.7244 3.46286,6.9524 9.33209,11.9413 16.95707,14.4099 l 2.28224,0.7379 0,7.4668 c 0,10.1057 0.46783,9.7238 -12.23413,9.9785 l -9.67544,0.1927 0,-5.5788 c 0,-3.6983 -0.30662,-6.2273 -0.91164,-7.5023 -1.84906,-3.899 -0.0389,-3.7219 -40.4731,-3.8988 -34.16362,-0.1495 -36.97395,-0.084 -38.95033,0.9129 -3.30801,1.6678 -4.25892,4.2386 -4.25892,11.5253 l 0,6.1925 -11.71554,0.1978 c -10.77073,0.1827 -11.92167,0.3098 -14.27673,1.5684 -3.32895,1.779 -5.48487,4.0638 -7.02933,7.4503 -1.008,2.2103 -1.3036,4.3955 -1.54177,11.4112 -0.19644,5.7854 -0.51999,8.6773 -0.97125,8.6776 -1.57019,0 -8.19201,3.6763 -10.80135,5.9947 -14.55464,12.9314 -11.15492,36.7148 6.4486,45.1162 19.49333,9.3033 41.70223,-7.1395 38.66512,-28.6257 -1.43272,-10.1359 -9.28404,-19.2296 -19.16584,-22.1974 l -2.43438,-0.7328 0,-7.5974 c 0,-5.5467 0.22582,-7.8696 0.83552,-8.6028 0.71766,-0.8631 2.32479,-1.0041 11.4113,-1.0041 l 10.57565,0 0,5.9338 c 0,4.8017 0.22747,6.3033 1.18422,7.8724 2.08925,3.4265 2.58502,3.5197 19.88221,3.7416 l 15.89452,0.2042 0.71643,2.5346 c 2.13027,7.5368 7.42711,13.7505 13.90139,16.3066 3.23236,1.2762 4.64948,1.3989 18.69919,1.6204 11.49311,0.1813 15.60522,0.4495 16.85696,1.0968 1.88152,0.973 4.37313,4.0152 5.31377,6.4892 l 0.63529,1.6711 -4.39841,0.013 c -2.41847,0.01 -6.1413,0.2636 -8.27317,0.5719 -13.18346,1.9059 -22.41584,14.425 -20.16614,27.3438 1.65129,9.4822 8.27837,16.7349 17.65189,19.3154 l 0.007,0 c 4.36267,1.2011 38.8371,1.1156 43.53388,-0.1078 14.40363,-3.7517 21.99776,-20.2647 15.40896,-33.5047 -4.68594,-9.4159 -12.98562,-13.5842 -27.11944,-13.6186 l -4.99809,-0.013 -0.65045,-2.5866 c -1.85224,-7.3592 -6.47394,-13.2767 -12.62078,-16.157 -3.46868,-1.6254 -3.70559,-1.6482 -19.38141,-1.9488 l -15.87052,-0.3043 -2.4521,-1.6242 c -1.43323,-0.9491 -2.99374,-2.7192 -3.75682,-4.2602 l -1.30602,-2.636 15.36715,-0.3043 c 16.69404,-0.3305 17.2834,-0.4468 19.35346,-3.8418 0.99325,-1.6289 1.18422,-3.0839 1.18422,-9.0909 l 0,-7.151 10.80268,-0.013 c 11.84258,-0.015 14.24525,-0.5647 18.00947,-4.1296 3.70353,-3.5072 4.31559,-5.6304 4.55305,-15.7881 0.19524,-8.3519 0.32443,-9.2811 1.28313,-9.2811 0.58597,0 2.77138,-0.8531 4.85738,-1.8955 10.5329,-5.2633 16.72246,-17.2382 14.77626,-28.5877 -0.60444,-3.5249 -1.68303,-6.6023 -3.327,-9.4193 0.67117,-0.7688 1.40539,-1.5869 2.17959,-2.4204 l 5.54961,-5.9758 4.4504,2.4002 c 5.2269,2.8194 7.01631,3.4007 12.78569,4.1537 4.99191,0.6515 10.78876,-0.01 15.95288,-1.8157 4.14379,-1.4508 10.81431,-5.867 13.71881,-9.082 l 2.0807,-2.3026 5.37976,3.5375 5.37975,3.5362 0.0267,6.5691 c 0.0233,5.7965 0.21491,6.9612 1.6217,9.9151 1.87517,3.9372 6.37451,8.5943 9.9011,10.2472 4.39961,2.0621 9.19086,2.7539 13.37912,1.9298 4.75366,-0.9352 7.74808,-2.4886 11.41502,-5.9186 5.97065,-5.5848 8.14551,-14.6281 5.43681,-22.6082 -1.49556,-4.4061 -1.93557,-3.3286 3.9927,-9.7768 1.71416,-1.8647 3.76814,-4.1355 4.56444,-5.0464 l 1.44667,-1.6558 3.65161,1.2641 c 7.10014,2.4585 15.71813,0.6 21.52032,-4.6419 1.38747,-1.2535 3.39449,-4.0655 4.4922,-6.2952 1.79598,-3.6482 1.98305,-4.5515 1.98305,-9.5334 0,-4.9912 -0.18522,-5.8799 -1.99954,-9.5652 -2.2131,-4.4955 -5.82787,-8.0959 -10.37785,-10.3373 -2.38656,-1.1757 -3.80484,-1.3985 -8.92361,-1.3985 -5.14357,0 -6.53093,0.2204 -8.96419,1.4188 -4.31204,2.1237 -8.69297,6.3785 -10.63141,10.3259 -1.52189,3.0992 -1.70465,4.1215 -1.70407,9.5563 0,5.0503 0.22709,6.5318 1.33004,8.7055 l 1.32877,2.6195 -5.51795,6.053 c -3.03482,3.3292 -5.74999,6.053 -6.034,6.053 -0.284,0 -1.68597,-0.4793 -3.1153,-1.065 -3.863,-1.5832 -12.03629,-1.4235 -15.86416,0.3094 -1.60586,0.727 -3.6175,1.8695 -4.46935,2.5396 l -1.54816,1.2185 -5.5737,-3.7328 c -3.06533,-2.0532 -5.78532,-3.9126 -6.04419,-4.1322 -0.2589,-0.2196 -0.0532,-2.3825 0.45644,-4.8066 1.67807,-7.9775 0.83409,-14.3529 -2.9568,-22.3356 -2.94914,-6.21 -9.74536,-13.0712 -15.83878,-15.9909 -10.85494,-5.2013 -23.33829,-4.6754 -33.44126,1.4099 -2.06942,1.2464 -3.88472,1.9582 -4.32863,1.6965 -0.42052,-0.248 -3.81244,-3.3316 -7.5378,-6.8531 l -6.7732,-6.403 1.27428,-3.3346 c 1.02766,-2.6836 1.2242,-4.2997 1.02068,-8.2707 -0.32553,-6.3516 -2.28795,-10.5497 -6.89997,-14.7648 -4.34214,-3.9685 -9.69101,-5.8032 -14.95505,-5.7107 z m 56.09635,52.7973 c 5.41577,0 6.0954,0.1431 9.92525,2.087 4.82087,2.447 8.17808,6.2478 10.15979,11.5013 1.04767,2.7781 1.25444,4.4053 1.05615,8.3263 -0.41723,8.2509 -4.59334,14.6041 -12.04388,18.3226 -2.58803,1.2918 -4.38271,1.7085 -7.91183,1.8386 -5.23257,0.1928 -7.00303,-0.1793 -11.29714,-2.3711 -3.81836,-1.9488 -7.2121,-5.634 -9.31281,-10.1142 -1.36047,-2.9013 -1.60395,-4.2517 -1.60395,-8.8982 0,-4.721 0.22836,-5.9398 1.64702,-8.8284 2.12014,-4.3168 5.88253,-8.0886 10.16742,-10.1928 2.9884,-1.4676 4.10657,-1.6711 9.21398,-1.6711 z m -149.86375,112.6339 27.69125,0 27.69131,0 0,9.7376 0,9.7376 -27.69131,0 -27.69125,0 0,-9.7376 0,-9.7376 z m -42.69582,47.4708 c 4.3927,0 9.49443,2.4762 8.15274,3.9571 -0.24813,0.2739 -0.14544,0.3234 0.22821,0.1103 1.64736,-0.9396 4.49354,4.7025 4.49354,8.9071 0,5.394 -2.78512,9.8014 -7.60754,12.0389 -5.06073,2.3481 -11.75047,0.8973 -15.30624,-3.3194 -7.39628,-8.771 -1.41578,-21.694 10.03929,-21.694 z m 128.05439,31.0385 c 18.21935,0 18.56623,0.023 20.56682,1.3719 4.68977,3.1604 5.89646,9.6017 2.57264,13.7353 -0.98952,1.2306 -2.59549,2.6487 -3.56924,3.1508 -1.43067,0.7376 -5.10037,0.9406 -19.11631,1.0562 -18.55645,0.153 -20.45087,-0.083 -23.47036,-2.92 -3.02774,-2.8444 -3.50319,-9.0491 -0.96616,-12.612 2.58331,-3.6278 3.56209,-3.7822 23.98261,-3.7822 z"
       id="rect20829"
       inkscape:connector-curvature="0" />
  </g>
</svg>
